…
``` r
fit = 
  nyc_airbnb |>
  lm(price = stars*borough +room_type*borough ,data = _)
```

    ## Warning: In lm.fit(x, y, offset = offset, singular.ok = singular.ok, ...) :
    ##  extra argument 'price' will be disregarded

``` r
fit |>
  broom::tidy()
```

    ## # A tibble: 184 × 5
    ##    term                          estimate std.error statistic  p.value
    ##    <chr>                            <dbl>     <dbl>     <dbl>    <dbl>
    ##  1 (Intercept)                    130.        39.4      3.30  0.000971
    ##  2 stars                            0.776      2.65     0.292 0.770   
    ##  3 boroughBrooklyn                 25.5       41.2      0.619 0.536   
    ##  4 boroughManhattan               107.        38.2      2.79  0.00532 
    ##  5 boroughQueens                   11.0       42.2      0.260 0.795   
    ##  6 neighborhoodArverne             20.5       29.0      0.708 0.479   
    ##  7 neighborhoodAstoria              7.45      20.6      0.363 0.717   
    ##  8 neighborhoodBath Beach         -16.2       72.2     -0.224 0.823   
    ##  9 neighborhoodBattery Park City   -6.26      30.3     -0.206 0.837   
    ## 10 neighborhoodBay Ridge          -14.4       27.2     -0.529 0.597   
    ## # ℹ 174 more rows
…
